{
    "name": "User Interface",
    "rootNamespace": "HiQ.BigUnityProject.UserInterface",
    "references": [
        "GUID:2bafac87e7f4b9b418d9448d219b01ab",
        "GUID:cf80c1baa8b6c1f4e94c4bb10b4f534d",
        "GUID:2b97092a924541f46a78b21adad626ad"
    ],
    "includePlatforms": [],
    "excludePlatforms": [],
    "allowUnsafeCode": false,
    "overrideReferences": false,
    "precompiledReferences": [],
    "autoReferenced": true,
    "defineConstraints": [],
    "versionDefines": [],
    "noEngineReferences": false
}